{
  "version":"WetSponge for SPIGOT (MINECRAFT_1_12)",
  "max_players":20,
  "start":1534634396,
  "end":1534634416,
  "sample_time":19,
  "server":"CraftBukkit",
  "motd":"A Minecraft Server",
  "online_mode":false,
  "icon":"",
  "system":{
    "name":"Windows 10",
    "version":"10.0",
    "jvm_version":"1.8.0_171",
    "arch":"amd64",
    "max_memory":1073741824,
    "cpu":4,
    "runtime":47094,
    "flags":"-XX:+UseG1GC -XX:MaxGCPauseMillis=50 -Xmx1024M -Xms1024M",
    "gc":[
      {
        "name":"G1 Young Generation",
        "collection_count":16,
        "collection_time":275
      },
      {
        "name":"G1 Old Generation",
        "collection_count":0,
        "collection_time":0
      }
    ]
  },
  "plugins":[
    {
      "name":"Runner",
      "version":"1.0",
      "description":"null",
      "website":"http:\/\/www.minetsii.es",
      "authors":[

      ]
    },
    {
      "name":"WetSpongeTest",
      "version":"1.0",
      "description":"null",
      "website":null,
      "authors":[

      ]
    },
    {
      "name":"Languages",
      "version":"1.6",
      "description":"Multi-language API for WetSponge",
      "website":"https:\/\/degoos.com",
      "authors":[
        "gaelitoelquesito",
        "IhToN"
      ]
    }
  ],
  "base_plugins":[
    {
      "name":"FastAsyncWorldEdit",
      "version":"18.08.18-39ef1d7-1185-21.1.2",
      "description":"Fast Async WorldEdit plugin",
      "website":null,
      "authors":[
        "Empire92"
      ]
    },
    {
      "name":"ViaRewind",
      "version":"1.2.2",
      "description":"null",
      "website":"https:\/\/github.com\/Gerrygames",
      "authors":[
        "Gerrygames"
      ]
    },
    {
      "name":"WorldEdit",
      "version":"6.1.7;dd00bb1",
      "description":"null",
      "website":null,
      "authors":[

      ]
    },
    {
      "name":"ViaVersion",
      "version":"1.3.0",
      "description":"Allow newer clients to join older server versions.",
      "website":null,
      "authors":[
        "_MylesC",
        "Matsv"
      ]
    },
    {
      "name":"WetSponge",
      "version":"2.2.1",
      "description":"Custom API to get plugin working on several Server Types",
      "website":"http:\/\/degooos.com",
      "authors":[
        "gaeqs",
        "IhToN"
      ]
    },
    {
      "name":"test",
      "version":"1.0",
      "description":"null",
      "website":null,
      "authors":[

      ]
    },
    {
      "name":"Vault",
      "version":"1.5.6-b49",
      "description":"Vault is a Permissions & Economy API to allow plugins to more easily hook into these systems without needing to hook each individual system themselves.",
      "website":"http:\/\/dev.bukkit.org\/server-mods\/vault\/",
      "authors":[
        "cereal",
        "Sleaker",
        "mung3r"
      ]
    },
    {
      "name":"ViaBackwards",
      "version":"2.3.1",
      "description":"Allows 1.9.x on a 1.10 Spigot server",
      "website":"https:\/\/matsv.nl",
      "authors":[
        "Matsv"
      ]
    },
    {
      "name":"PlaceholderAPI",
      "version":"2.9.1",
      "description":"An awesome placeholder provider!",
      "website":null,
      "authors":[
        "[extended_clip]"
      ]
    }
  ],
  "timings":[
    {
      "name":"Server thread",
      "recorders":[
        {
          "id":"Runner",
          "timings":[
            {
              "times":1,
              "maximum_delay":944844408,
              "total_delay":944844408,
              "name":"Runner enabling",
              "first_execution":1534634402027,
              "last_execution":1534634402027,
              "timings":[
                {
                  "times":1,
                  "maximum_delay":29653151,
                  "total_delay":29653151,
                  "name":"Load manager com.degoos.runner.manager.FileManager@285667ad",
                  "first_execution":1534634401157,
                  "last_execution":1534634401157
                },
                {
                  "times":1,
                  "maximum_delay":15095998,
                  "total_delay":15095998,
                  "name":"Load manager com.degoos.runner.manager.ExecutorManager@5de8fd56",
                  "first_execution":1534634401173,
                  "last_execution":1534634401173
                },
                {
                  "times":1,
                  "maximum_delay":2548929,
                  "total_delay":2548929,
                  "name":"Load manager com.degoos.runner.manager.LayoutManager@4ceaf034",
                  "first_execution":1534634401177,
                  "last_execution":1534634401177
                },
                {
                  "times":1,
                  "maximum_delay":5988236,
                  "total_delay":5988236,
                  "name":"Load manager com.degoos.runner.manager.SignManager@597c5b8c",
                  "first_execution":1534634401183,
                  "last_execution":1534634401183
                },
                {
                  "times":1,
                  "maximum_delay":793384716,
                  "total_delay":793384716,
                  "name":"Load manager com.degoos.runner.manager.NPCManager@5da776a1",
                  "first_execution":1534634401978,
                  "last_execution":1534634401978,
                  "timings":[
                    {
                      "times":25,
                      "maximum_delay":7128470,
                      "total_delay":22221901,
                      "name":"Create entity",
                      "first_execution":1534634401213,
                      "last_execution":1534634401975
                    }
                  ]
                },
                {
                  "times":1,
                  "maximum_delay":17033274,
                  "total_delay":17033274,
                  "name":"Load manager com.degoos.runner.manager.PortalManager@5b5b51c6",
                  "first_execution":1534634401997,
                  "last_execution":1534634401997
                },
                {
                  "times":1,
                  "maximum_delay":7645825,
                  "total_delay":7645825,
                  "name":"Load manager com.degoos.runner.manager.ListenerManager@4943b4ac",
                  "first_execution":1534634402007,
                  "last_execution":1534634402007
                }
              ]
            }
          ]
        },
        {
          "id":"WetSpongeTest",
          "timings":[
            {
              "times":1,
              "maximum_delay":4388700,
              "total_delay":4388700,
              "name":"WetSpongeTest enabling",
              "first_execution":1534634400681,
              "last_execution":1534634400681
            }
          ]
        },
        {
          "id":"Languages",
          "timings":[
            {
              "times":1,
              "maximum_delay":397261513,
              "total_delay":397261513,
              "name":"Languages enabling",
              "first_execution":1534634401081,
              "last_execution":1534634401081
            }
          ]
        },
        {
          "id":"WetSponge",
          "timings":[
            {
              "times":1,
              "maximum_delay":298437991,
              "total_delay":298437991,
              "name":"WetSponge load",
              "first_execution":1534634396683,
              "last_execution":1534634396683
            }
          ]
        }
      ]
    },
    {
      "name":"Craft Scheduler Thread",
      "recorders":[
        {
          "id":"Runner",
          "timings":[
            {
              "times":31,
              "maximum_delay":199526907,
              "total_delay":536749865,
              "name":"Runner task 12d817f8-227d-4344-bb77-4ac3cbc16d05",
              "first_execution":1534634402238,
              "last_execution":1534634405546,
              "asynchronous":true,
              "timer":true,
              "later":false,
              "instantaneous":false,
              "delay":0,
              "interval":10,
              "times_to_execute":-1
            },
            {
              "times":61,
              "maximum_delay":246329,
              "total_delay":2452708,
              "name":"Runner task f4d2379f-a4ad-41b0-ad49-26a7091e559b",
              "first_execution":1534634402272,
              "last_execution":1534634406292,
              "asynchronous":true,
              "timer":true,
              "later":false,
              "instantaneous":false,
              "delay":5,
              "interval":5,
              "times_to_execute":-1
            },
            {
              "times":61,
              "maximum_delay":271026,
              "total_delay":2217286,
              "name":"Runner task 59ada13e-0d32-44d6-8c06-40d19c49d0c1",
              "first_execution":1534634402272,
              "last_execution":1534634406542,
              "asynchronous":true,
              "timer":true,
              "later":false,
              "instantaneous":false,
              "delay":5,
              "interval":5,
              "times_to_execute":-1
            },
            {
              "times":61,
              "maximum_delay":70884,
              "total_delay":1503953,
              "name":"Runner task 8768221e-bad9-4335-90ea-19662f8956f3",
              "first_execution":1534634402272,
              "last_execution":1534634405791,
              "asynchronous":true,
              "timer":true,
              "later":false,
              "instantaneous":false,
              "delay":5,
              "interval":5,
              "times_to_execute":-1
            },
            {
              "times":30,
              "maximum_delay":1771953120,
              "total_delay":28734461059,
              "name":"Runner task 82c8fa83-b190-48b1-b55e-839796570065",
              "first_execution":1534634404272,
              "last_execution":1534634404272,
              "asynchronous":true,
              "timer":true,
              "later":false,
              "instantaneous":false,
              "delay":0,
              "interval":10,
              "times_to_execute":-1
            },
            {
              "times":62,
              "maximum_delay":14258222,
              "total_delay":18638257,
              "name":"Runner task 88a86b60-1b4d-4699-bbf1-7dce0e1dc344",
              "first_execution":1534634404288,
              "last_execution":1534634406541,
              "asynchronous":true,
              "timer":true,
              "later":false,
              "instantaneous":false,
              "delay":0,
              "interval":5,
              "times_to_execute":-1
            },
            {
              "times":48,
              "maximum_delay":114184,
              "total_delay":2671132,
              "name":"Runner task 31ef8b65-f707-4211-80ed-42998bd826c2",
              "first_execution":1534634404337,
              "last_execution":1534634405841,
              "asynchronous":true,
              "timer":true,
              "later":false,
              "instantaneous":false,
              "delay":5,
              "interval":5,
              "times_to_execute":-1
            },
            {
              "times":51,
              "maximum_delay":497469,
              "total_delay":4130183,
              "name":"Runner task a38635d1-3b8b-4335-942d-bd73177d2347",
              "first_execution":1534634404387,
              "last_execution":1534634406141,
              "asynchronous":true,
              "timer":true,
              "later":false,
              "instantaneous":false,
              "delay":5,
              "interval":5,
              "times_to_execute":-1
            },
            {
              "times":31,
              "maximum_delay":30791,
              "total_delay":162616,
              "name":"Runner task 2f4b63d2-10f9-49d7-9842-46c1b862b4ac",
              "first_execution":1534634404538,
              "last_execution":1534634405039,
              "asynchronous":true,
              "timer":true,
              "later":false,
              "instantaneous":false,
              "delay":0,
              "interval":10,
              "times_to_execute":-1
            },
            {
              "times":61,
              "maximum_delay":624163,
              "total_delay":3398575,
              "name":"Runner task 748cce9a-2f0f-4d03-a955-71b4e4552c58",
              "first_execution":1534634405040,
              "last_execution":1534634406542,
              "asynchronous":true,
              "timer":true,
              "later":false,
              "instantaneous":false,
              "delay":5,
              "interval":5,
              "times_to_execute":-1
            },
            {
              "times":61,
              "maximum_delay":117392,
              "total_delay":1396190,
              "name":"Runner task f7364010-d0d4-49d7-bfce-7b06029c938c",
              "first_execution":1534634405040,
              "last_execution":1534634406292,
              "asynchronous":true,
              "timer":true,
              "later":false,
              "instantaneous":false,
              "delay":5,
              "interval":5,
              "times_to_execute":-1
            },
            {
              "times":46,
              "maximum_delay":340626,
              "total_delay":2826049,
              "name":"Runner task 2610e681-019f-4017-b7ef-d0866dd06980",
              "first_execution":1534634405140,
              "last_execution":1534634406392,
              "asynchronous":true,
              "timer":true,
              "later":false,
              "instantaneous":false,
              "delay":5,
              "interval":5,
              "times_to_execute":-1
            },
            {
              "times":44,
              "maximum_delay":105844,
              "total_delay":2368034,
              "name":"Runner task 528376ad-b869-4792-a7c7-460571453e50",
              "first_execution":1534634405391,
              "last_execution":1534634405391,
              "asynchronous":true,
              "timer":true,
              "later":false,
              "instantaneous":false,
              "delay":5,
              "interval":5,
              "times_to_execute":-1
            },
            {
              "times":42,
              "maximum_delay":353136,
              "total_delay":2661510,
              "name":"Runner task 16436db4-a575-4b23-a4dd-e7f737c1fb07",
              "first_execution":1534634405942,
              "last_execution":1534634405942,
              "asynchronous":true,
              "timer":true,
              "later":false,
              "instantaneous":false,
              "delay":5,
              "interval":5,
              "times_to_execute":-1
            },
            {
              "times":40,
              "maximum_delay":233178,
              "total_delay":2388873,
              "name":"Runner task 14100bf9-2572-4684-857f-8e306c4e6906",
              "first_execution":1534634406442,
              "last_execution":1534634406442,
              "asynchronous":true,
              "timer":true,
              "later":false,
              "instantaneous":false,
              "delay":5,
              "interval":5,
              "times_to_execute":-1
            }
          ]
        }
      ]
    }
  ]
}